<?xml version="1.0" encoding="UTF-8"?>
<svg width="83px" height="82px" viewBox="0 0 83 82" version="1.1" xmlns="http://www.w3.org/2000/svg" xmlns:xlink="http://www.w3.org/1999/xlink">
    <title>Group 7</title>
    <g id="Home-Blue" stroke="none" stroke-width="1" fill="none" fill-rule="evenodd">
        <g id="Home-V1" transform="translate(-154.000000, -1090.000000)">
            <g id="Group-12" transform="translate(128.000000, 1076.000000)">
                <g id="Group-7" transform="translate(26.627660, 14.000000)">
                    <ellipse id="Oval" fill="#DFE3E6" cx="40.936443" cy="40.8258065" rx="40.5641026" ry="40.8258065"></ellipse>
                    <path d="M43.4617064,27.3512861 L43.4617064,28.1641324 L44.2695641,28.1641324 M43.4617064,28.9968737 L43.4617064,28.1641324 L42.6425499,28.1641324 M48.4670347,28.9968737 L48.4670347,28.1641324 L47.6450536,28.1641324 M48.4670347,27.3512861 L48.4670347,28.1641324 L49.2748925,28.1641324 M53.4610644,27.3512861 L53.4610644,28.1641324 L54.2689221,28.1641324 M53.4610644,28.9968737 L53.4610644,28.1641324 L52.6390833,28.1641324 M61.5707132,28.1641324 L63,28.1641324 L63,58.4440813 L57.4777557,58.4440813 M41.6934583,53.2742646 L19,53.2742646 L19,23 L57.8760352,23 L57.8760352,53.2742646 L51.9442126,53.2742646 M19,28.1698167 L38.8998523,28.1698167 M38.4309559,37.0031263 L38.4309559,31.6940458 L30.6969892,36.1902799 L38.4450793,40.7149353 L46.2101175,36.1988063 L38.4366053,31.6940458 M30.6969892,36.1902799 L30.6969892,36.1902799 L30.6969892,36.1902799 L30.6969892,36.1902799 L30.6969892,45.2509592 L35.2192977,42.6106295 M30.6659177,45.2509592 L30.6659177,45.2509592 L30.6659177,45.2509592 L38.4366053,49.7557198 L38.4366053,40.7206196 L38.4366053,40.7206196 M30.6969892,36.1902799 L26.6464017,33.8398465 L22.5477948,33.8398465 M30.6659177,45.2594856 L26.626629,47.6156032 L22.5223727,47.6156032 M22.5167234,40.7206196 L30.6659177,40.7206196 M24.1380882,57.0031263 L24.1380882,58.4440813 L42.1849522,58.4440813 M54.3649612,33.8455308 L50.2607049,33.8455308 L46.2242409,36.2044905 L46.2242409,40.7206196 L54.3988573,40.7206196 M46.2072928,40.7149353 L46.2072928,45.245275 L50.2720036,47.6156032 L54.3762599,47.6156032 M46.2242409,45.2395907 L41.6623869,42.5793662 M51.0629133,59.1347165 L52.475252,61.6073611 L50.0799255,63 L48.6675868,60.5273554 L46.2327149,63 L45.0858959,51.5007816 L54.4073313,58.2508171 L51.0629133,59.1347165 Z M46.2242409,45.245275 L38.4366053,49.7557198" id="Shape" stroke="#333E48" stroke-width="2" stroke-linecap="round" stroke-linejoin="round"></path>
                </g>
            </g>
        </g>
    </g>
</svg>