<?xml version="1.0" encoding="UTF-8"?>
<svg width="81px" height="81px" viewBox="0 0 81 81" version="1.1" xmlns="http://www.w3.org/2000/svg" xmlns:xlink="http://www.w3.org/1999/xlink">
    <title>Group 14</title>
    <g id="Home-Blue" stroke="none" stroke-width="1" fill="none" fill-rule="evenodd">
        <g id="Home-V1" transform="translate(-680.000000, -1091.000000)">
            <g id="Group-6" transform="translate(653.000000, 1076.000000)">
                <g id="Group-14" transform="translate(27.000000, 15.000000)">
                    <circle id="Oval-Copy-4" fill="#DFE3E6" cx="40.5" cy="40.5" r="40.5"></circle>
                    <g id="Asset-1" transform="translate(20.000000, 17.000000)" stroke="#333E48" stroke-linecap="round" stroke-linejoin="round" stroke-width="2">
                        <path d="M13.79,16.74 L3.9,39.37 C3.58598571,40.0837914 2.93032215,40.5887277 2.16,40.71 L0,41 L0,46 L13,46 L13,41.18 L12.62,41.18 C11.9345353,41.1018143 11.3213366,40.7174558 10.9521991,40.1346072 C10.5830617,39.5517586 10.4976893,38.8331101 10.72,38.18 L11.5,36.01 L20,36.01 L20.92,38.01 C21.2008712,38.6835994 21.1423078,39.4509488 20.7624681,40.0741234 C20.3826283,40.697298 19.727421,41.1009787 19,41.16 L19,41.16 L19,46 L34,46 L34,41.11 L31.83,41 C30.9814579,40.9391594 30.2373636,40.410968 29.9,39.63 L24.42,27 M14,31 L16.22,25.7 L18.45,31 L14,31 Z" id="Shape"></path>
                        <line x1="25" y1="24.5" x2="25" y2="18.5" id="Path"></line>
                        <line x1="25" y1="10.5" x2="25" y2="4.5" id="Path"></line>
                        <line x1="32.07" y1="21.07" x2="28.07" y2="17.07" id="Path"></line>
                        <line x1="22.43" y1="11.43" x2="17.93" y2="6.93" id="Path"></line>
                        <line x1="35" y1="14" x2="28.97" y2="14" id="Path"></line>
                        <line x1="21.03" y1="14" x2="15" y2="14" id="Path"></line>
                        <line x1="17.93" y1="21.07" x2="21.93" y2="17.07" id="Path"></line>
                        <line x1="24.98" y1="14.02" x2="39" y2="0" id="Path"></line>
                    </g>
                </g>
            </g>
        </g>
    </g>
</svg>