<?xml version="1.0" encoding="UTF-8"?>
<svg width="82px" height="82px" viewBox="0 0 82 82" version="1.1" xmlns="http://www.w3.org/2000/svg" xmlns:xlink="http://www.w3.org/1999/xlink">
    <title>Group 15</title>
    <g id="Home-Blue" stroke="none" stroke-width="1" fill="none" fill-rule="evenodd">
        <g id="Home-V1" transform="translate(-854.000000, -1090.000000)">
            <g id="Group-5" transform="translate(827.000000, 1076.000000)">
                <g id="Group-15" transform="translate(27.000000, 14.000000)">
                    <ellipse id="Oval-Copy-5" fill="#DFE3E6" cx="40.6403509" cy="40.8258065" rx="40.6403509" ry="40.8258065"></ellipse>
                    <g id="Group" transform="translate(17.000000, 16.000000)" fill="#333E48" stroke="#333E48" stroke-width="0.2">
                        <path d="M31.7192982,31.637961 C31.1671354,31.637961 30.7192982,31.9009689 30.7192982,32.2259867 L30.7192982,34.0499354 C30.7192982,34.3749532 31.1671354,34.637961 31.7192982,34.637961 C32.2718246,34.637961 32.7192982,34.3749532 32.7192982,34.0499354 L32.7192982,32.2259867 C32.7192982,31.9009689 32.2718246,31.637961 31.7192982,31.637961" id="Fill-43"></path>
                        <path d="M34.7192982,31.637961 C34.1667719,31.637961 33.7192982,31.9009689 33.7192982,32.2259867 L33.7192982,34.0499354 C33.7192982,34.3749532 34.1667719,34.637961 34.7192982,34.637961 C35.2714611,34.637961 35.7192982,34.3749532 35.7192982,34.0499354 L35.7192982,32.2259867 C35.7192982,31.9009689 35.2714611,31.637961 34.7192982,31.637961" id="Fill-44"></path>
                        <path d="M37.7192982,31.637961 C37.1671354,31.637961 36.7192982,31.9009689 36.7192982,32.2259867 L36.7192982,34.0499354 C36.7192982,34.3749532 37.1671354,34.637961 37.7192982,34.637961 C38.2718246,34.637961 38.7192982,34.3749532 38.7192982,34.0499354 L38.7192982,32.2259867 C38.7192982,31.9009689 38.2718246,31.637961 37.7192982,31.637961" id="Fill-45"></path>
                        <path d="M45.3271071,41.0943641 L43.9569299,43.381826 L3.48191967,43.381826 L2.11148941,41.0943641 L2.11148941,40.0310714 L45.3271071,40.0310714 L45.3271071,41.0943641 Z M6.17849932,47.2554291 L41.2600972,47.2554291 L41.2600972,44.7668716 L6.17849932,44.7668716 L6.17849932,47.2554291 Z M6.17849932,38.6485395 L41.2600972,38.6485395 L41.2600972,28.4982415 L6.17849932,28.4982415 L6.17849932,38.6485395 Z M2.11148941,22.7343402 L5.9527933,22.7343402 L8.63469699,25.3058496 C8.76425022,25.4315343 8.93783131,25.4994041 9.11799127,25.4994041 L38.3203522,25.4994041 C38.5007652,25.4994041 38.6740932,25.4315343 38.8036465,25.3058496 L41.4852971,22.7343402 L45.3268541,22.7343402 L45.3268541,27.1157096 L2.11148941,27.1157096 L2.11148941,22.7343402 Z M23.9986474,16.3193921 L25.2531883,17.5636709 L25.2531883,18.2448821 L19.5530991,18.2448821 L19.5530991,17.5636709 L20.80764,16.3193921 L23.9986474,16.3193921 Z M15.1804246,11.8618579 C15.3398358,11.730643 15.4321931,11.5355803 15.4321931,11.3297088 L15.4321931,4.193079 L17.356767,4.193079 L17.356767,10.3219687 C17.356767,11.6946972 18.4809956,12.8115316 19.8625593,12.8115316 L21.7071746,12.8115316 L21.7071746,14.9343465 L20.5191816,14.9343465 C20.3347201,14.9343465 20.1575965,15.0072437 20.0270312,15.1379558 L18.3648531,16.789453 C18.2345408,16.9176514 18.161161,17.09361 18.161161,17.2771097 L18.161161,18.9386617 C18.161161,19.3182296 18.4726454,19.6299277 18.8572566,19.6299277 L25.9492838,19.6299277 C26.333642,19.6299277 26.6451264,19.3182296 26.6451264,18.9386617 L26.6451264,17.2771097 C26.6451264,17.09361 26.5719997,16.9176514 26.4411813,16.789453 L24.7792562,15.1379558 C24.6486909,15.0072437 24.4715673,14.9343465 24.2871058,14.9343465 L23.0993658,14.9343465 L23.0991128,12.8115316 L24.9439811,12.8115316 C26.3255449,12.8115316 27.4497734,11.6946972 27.4497734,10.3219687 L27.4497734,4.193079 L29.3743474,4.193079 L29.3743474,24.1168722 L11.3950411,24.1168722 L11.3950411,22.7846141 L12.8568165,22.7846141 C13.2411747,22.7846141 13.5526591,22.472916 13.5526591,22.0908345 C13.5526591,21.7112666 13.2411747,21.3995685 12.8568165,21.3995685 L11.3950411,21.3995685 L11.3950411,20.0170366 L12.8568165,20.0170366 C13.2411747,20.0170366 13.5526591,19.7078522 13.5526591,19.3257706 C13.5526591,18.9436891 13.2411747,18.6345047 12.8568165,18.6345047 L11.3950411,18.6345047 L11.3950411,17.2519728 L12.8568165,17.2519728 C13.2411747,17.2519728 13.5526591,16.9427884 13.5526591,16.5607068 C13.5526591,16.1786253 13.2411747,15.8694408 12.8568165,15.8694408 L11.3950411,15.8694408 L11.3950411,14.9821067 L15.1804246,11.8618579 Z M19.8625593,2.02099567 L24.9439811,2.02099567 C25.5580938,2.02099567 26.0575822,2.51719894 26.0575822,3.12727258 L26.0575822,6.0331033 L24.9492948,6.0331033 C24.6428711,4.92079353 23.6190969,4.09982094 22.4035232,4.09982094 C21.1876965,4.09982094 20.1639224,4.92079353 19.8572456,6.0331033 L18.7489582,6.0331033 L18.7489582,3.12727258 C18.7489582,2.51719894 19.2484466,2.02099567 19.8625593,2.02099567 Z M21.153284,6.72462063 C21.153284,6.03989027 21.7142596,5.4828556 22.4035232,5.4828556 C23.0925339,5.4828556 23.6532565,6.03989027 23.6532565,6.72462063 C23.6532565,7.40935098 23.0925339,7.96638566 22.4035232,7.96638566 C21.7142596,7.96638566 21.153284,7.40935098 21.153284,6.72462063 Z M19.8625593,11.428497 C19.2484466,11.428497 18.7489582,10.9320423 18.7489582,10.3219687 L18.7489582,7.41613796 L19.8572456,7.41613796 C20.1639224,8.52844773 21.1876965,9.34942032 22.4035232,9.34942032 C23.6190969,9.34942032 24.6428711,8.52844773 24.9492948,7.41613796 L26.0575822,7.41613796 L26.0575822,10.3219687 C26.0575822,10.9320423 25.5580938,11.428497 24.9439811,11.428497 L19.8625593,11.428497 Z M35.439564,16.4249673 L35.439564,12.0677294 C35.439564,11.4576558 35.9390525,10.9614525 36.5531651,10.9614525 L44.2132529,10.9614525 C44.8273656,10.9614525 45.3268541,11.4576558 45.3268541,12.0677294 L45.3268541,12.171545 L43.8650786,12.171545 C43.4807205,12.171545 43.1689831,12.4809808 43.1689831,12.8630623 C43.1689831,13.2451439 43.4807205,13.5543283 43.8650786,13.5543283 L45.3268541,13.5543283 L45.3268541,14.9368602 L43.8650786,14.9368602 C43.4807205,14.9368602 43.1689831,15.2460446 43.1689831,15.6281262 C43.1689831,16.0102077 43.4807205,16.3193921 43.8650786,16.3193921 L45.3268541,16.3193921 L45.3268541,16.4249673 C45.3268541,17.0332814 44.8273656,17.5309928 44.2132529,17.5309928 L36.5531651,17.5309928 C35.9390525,17.5309928 35.439564,17.0332814 35.439564,16.4249673 Z M42.6522883,38.6485395 L42.6522883,28.4982415 L46.0229496,28.4982415 C46.4075608,28.4982415 46.7192982,28.1890571 46.7192982,27.8069755 L46.7192982,22.0430743 C46.7192982,21.6609927 46.4075608,21.3518083 46.0229496,21.3518083 L43.5022284,21.3518083 L43.5022284,18.9135248 L44.2132529,18.9135248 C45.5948167,18.9135248 46.7192982,17.7974444 46.7192982,16.4249673 L46.7192982,12.0677294 C46.7192982,10.6950009 45.5948167,9.57841788 44.2132529,9.57841788 L36.5531651,9.57841788 C35.1716014,9.57841788 34.0473729,10.6950009 34.0473729,12.0677294 L34.0473729,16.4249673 C34.0473729,17.7974444 35.1716014,18.9135248 36.5531651,18.9135248 L42.1100372,18.9135248 L42.1100372,21.3518083 L41.2041767,21.3518083 C41.0237637,21.3518083 40.8504357,21.4221918 40.7208825,21.5453628 L38.0392318,24.1168722 L30.7665385,24.1168722 L30.7665385,3.50156167 C30.7665385,3.11973149 30.4550541,2.81004434 30.0704429,2.81004434 L27.4270004,2.81004434 C27.2693604,1.58688065 26.2172465,0.637961013 24.9439811,0.637961013 L19.8625593,0.637961013 C18.589294,0.637961013 17.53718,1.58688065 17.3795401,2.81004434 L14.7360975,2.81004434 C14.3517394,2.81004434 14.0400019,3.11973149 14.0400019,3.50156167 L14.0400019,11.0049394 L10.2543654,14.1249369 C10.0949542,14.255649 10.00285,14.4517172 10.00285,14.6553265 L10.00285,24.1168722 L9.39911166,24.1168722 L6.717461,21.5453628 C6.58765474,21.4221918 6.41432668,21.3518083 6.23416672,21.3518083 L1.41539383,21.3518083 C1.03103571,21.3518083 0.719298246,21.6609927 0.719298246,22.0430743 L0.719298246,27.8069755 C0.719298246,28.1890571 1.03103571,28.4982415 1.41539383,28.4982415 L4.78630816,28.4982415 L4.78630816,38.6485395 L1.41539383,38.6485395 C1.03103571,38.6485395 0.719298246,38.9577239 0.719298246,39.3398054 L0.719298246,41.2828912 C0.719298246,41.4085759 0.752951722,41.5292333 0.81722227,41.6373221 L2.48775045,44.4275229 C2.61325514,44.6386732 2.84047936,44.7668716 3.08592201,44.7668716 L4.78630816,44.7668716 L4.78630816,47.9466951 C4.78630816,48.3287766 5.09804562,48.637961 5.48240374,48.637961 L41.9561928,48.637961 C42.3405509,48.637961 42.6522883,48.3287766 42.6522883,47.9466951 L42.6522883,44.7668716 L44.3526745,44.7668716 C44.5981171,44.7668716 44.8255944,44.6386732 44.9510991,44.4275229 L46.6216273,41.6373221 C46.6853917,41.5292333 46.7192982,41.4085759 46.7192982,41.2828912 L46.7192982,39.3398054 C46.7192982,38.9577239 46.4078138,38.6485395 46.0232027,38.6485395 L42.6522883,38.6485395 Z" id="Fill-46"></path>
                        <path d="M11.1458713,34.7227418 C10.9442054,34.9238835 10.6760945,35.0346572 10.3907896,35.0346572 C10.1054847,35.0346572 9.83737387,34.9238835 9.63541647,34.7227418 C9.43375049,34.5186849 9.32271763,34.2504959 9.32271763,33.9677314 C9.32271763,33.6820519 9.43375049,33.4138629 9.63541647,33.209806 C9.83708245,33.0086643 10.1054847,32.8978906 10.3907896,32.8978906 C10.6758031,32.8978906 10.9439139,33.0086643 11.1455799,33.209806 L11.1461628,33.209806 C11.5623174,33.626665 11.5623174,34.3058828 11.1458713,34.7227418 Z M12.3506216,30.8718976 L11.625848,31.597757 C11.2490357,31.3995303 10.8282183,31.2945868 10.3907896,31.2945868 C9.67709022,31.2945868 9.00623027,31.5715211 8.5017739,32.075833 C7.9970261,32.5801449 7.71929825,33.2535325 7.71929825,33.9677314 C7.71929825,34.6790153 7.99731753,35.3524029 8.5017739,35.8567148 C9.00623027,36.3610267 9.67709022,36.637961 10.3907896,36.637961 C11.104489,36.637961 11.7750575,36.3610267 12.2798053,35.8567148 C13.1237716,35.0113365 13.2834724,33.7374387 12.7594906,32.73173 L13.4845555,32.0058706 C13.7975458,31.6939552 13.7975458,31.1838131 13.4845555,30.8718976 C13.1715653,30.5599821 12.6639032,30.5599821 12.3506216,30.8718976 L12.3506216,30.8718976 Z" id="Fill-47"></path>
                        <path d="M18.1458713,34.7227418 C17.9442054,34.9238835 17.6760945,35.0346572 17.3907896,35.0346572 C17.1054847,35.0346572 16.8373739,34.9238835 16.6354165,34.7227418 C16.4337505,34.5186849 16.3227176,34.2504959 16.3227176,33.9677314 C16.3227176,33.6820519 16.4337505,33.4138629 16.6354165,33.209806 C16.8370824,33.0086643 17.1054847,32.8978906 17.3907896,32.8978906 C17.6760945,32.8978906 17.9442054,33.0086643 18.1458713,33.209806 C18.5623174,33.626665 18.5623174,34.3058828 18.1458713,34.7227418 Z M19.350913,30.8718976 L18.6261394,31.597757 C18.2490357,31.3995303 17.8282183,31.2945868 17.3907896,31.2945868 C16.6770902,31.2945868 16.0062303,31.5715211 15.5017739,32.075833 C14.9970261,32.5801449 14.7192982,33.2535325 14.7192982,33.9677314 C14.7192982,34.6790153 14.9973175,35.3524029 15.5017739,35.8567148 C16.0062303,36.3610267 16.6770902,36.637961 17.3907896,36.637961 C18.104489,36.637961 18.775349,36.3610267 19.2798053,35.8567148 C20.1237716,35.0113365 20.2834724,33.7374387 19.7594906,32.73173 L20.4845555,32.0058706 C20.7975458,31.6939552 20.7975458,31.1838131 20.4845555,30.8718976 C20.1718567,30.5599821 19.6639032,30.5599821 19.350913,30.8718976 L19.350913,30.8718976 Z" id="Fill-48"></path>
                        <path d="M25.1461628,34.7227418 C24.9442054,34.9238835 24.6760945,35.0346572 24.3907896,35.0346572 C24.1054847,35.0346572 23.8373739,34.9238835 23.6354165,34.7227418 C23.4337505,34.5186849 23.3227176,34.2504959 23.3227176,33.9677314 C23.3227176,33.6820519 23.4337505,33.4138629 23.6354165,33.209806 C23.8373739,33.0086643 24.1054847,32.8978906 24.3907896,32.8978906 C24.6760945,32.8978906 24.9442054,33.0086643 25.1458713,33.209806 C25.5623174,33.626665 25.5623174,34.3058828 25.1461628,34.7227418 Z M26.350913,30.8718976 L25.6261394,31.597757 C25.2490357,31.3995303 24.8282183,31.2945868 24.3907896,31.2945868 C23.6773816,31.2945868 23.0065217,31.5715211 22.5017739,32.075833 C21.9970261,32.5801449 21.7192982,33.2535325 21.7192982,33.9677314 C21.7192982,34.6790153 21.9973175,35.3524029 22.5017739,35.8567148 C23.0065217,36.3610267 23.6773816,36.637961 24.3907896,36.637961 C25.1041976,36.637961 25.775349,36.3610267 26.2798053,35.8567148 C27.1237716,35.0113365 27.283181,33.7374387 26.7591992,32.73173 L27.4845555,32.0058706 C27.7975458,31.6939552 27.7975458,31.1838131 27.4845555,30.8718976 C27.1715653,30.5599821 26.6636118,30.5599821 26.350913,30.8718976 L26.350913,30.8718976 Z" id="Fill-49"></path>
                    </g>
                </g>
            </g>
        </g>
    </g>
</svg>